[
       {
            "productId" : "p1",
            "name" : "Product1",
            "description" : "Desc 1",
            "classificationRules" : "class1",
            "pipeline" : "RTGS"
        },
       {
            "productId" : "p2",
            "name" : "Product2",
            "description" : "Desc 2",
            "classificationRules" : "class2",
            "pipeline" : "IMPS"
        },       {
            "productId" : "p3",
            "name" : "Product3",
            "description" : "Desc 3",
            "classificationRules" : "class3",
            "pipeline" : "pipe1"
        },       {
            "productId" : "p4",
            "name" : "Product4",
            "description" : "Desc 4",
            "classificationRules" : "class4",
            "pipeline" : "pipe2"
        },       {
            "productId" : "p5",
            "name" : "Product5",
            "description" : "Desc 5",
            "classificationRules" : "class5",
            "pipeline" : "pipe3"
        },{
            "productId" : "p4",
            "name" : "Product4",
            "description" : "Desc 4",
            "classificationRules" : "class4",
            "pipeline" : "pipe2"
        },{
            "productId" : "p4",
            "name" : "Product4",
            "description" : "Desc 4",
            "classificationRules" : "class4",
            "pipeline" : "pipe2"
        },{
            "productId" : "p4",
            "name" : "Product4",
            "description" : "Desc 4",
            "classificationRules" : "class4",
            "pipeline" : "pipe2"
        },{
            "productId" : "p4",
            "name" : "Product4",
            "description" : "Desc 4",
            "classificationRules" : "class4",
            "pipeline" : "pipe2"
        },{
            "productId" : "p4",
            "name" : "Product4",
            "description" : "Desc 4",
            "classificationRules" : "class4",
            "pipeline" : "pipe2"
        },{
            "productId" : "p4",
            "name" : "Product4",
            "description" : "Desc 4",
            "classificationRules" : "class4",
            "pipeline" : "pipe2"
        },{
            "productId" : "p4",
            "name" : "Product4",
            "description" : "Desc 4",
            "classificationRules" : "class4",
            "pipeline" : "pipe2"
        },{
            "productId" : "p4",
            "name" : "Product4",
            "description" : "Desc 4",
            "classificationRules" : "class4",
            "pipeline" : "pipe2"
        },{
            "productId" : "p4",
            "name" : "Product4",
            "description" : "Desc 4",
            "classificationRules" : "class4",
            "pipeline" : "pipe2"
        },{
            "productId" : "p4",
            "name" : "Product4",
            "description" : "Desc 4",
            "classificationRules" : "class4",
            "pipeline" : "pipe2"
        },{
            "productId" : "p4",
            "name" : "Product4",
            "description" : "Desc 4",
            "classificationRules" : "class4",
            "pipeline" : "pipe2"
        },{
            "productId" : "p4",
            "name" : "Product4",
            "description" : "Desc 4",
            "classificationRules" : "class4",
            "pipeline" : "pipe2"
        },{
            "productId" : "p4",
            "name" : "Product4",
            "description" : "Desc 4",
            "classificationRules" : "class4",
            "pipeline" : "pipe2"
        },{
            "productId" : "p4",
            "name" : "Product4",
            "description" : "Desc 4",
            "classificationRules" : "class4",
            "pipeline" : "pipe2"
        },{
            "productId" : "p4",
            "name" : "Product4",
            "description" : "Desc 4",
            "classificationRules" : "class4",
            "pipeline" : "pipe2"
        },{
            "productId" : "p4",
            "name" : "Product4",
            "description" : "Desc 4",
            "classificationRules" : "class4",
            "pipeline" : "pipe2"
        },
        ]